{
  "version": 1,
  "license": "CC-BY-SA-3.0",
  "copyright": "Taken from tgstation at commit https://github.com/tgstation/tgstation/commit/555fa0ed9f380509156d94131bd8a3f1c1fee1cf",
  "size": {
    "x": 32,
    "y": 32
  },
  "states": [
    {
      "name": "icon"
    },
    {
      "name": "icon-on"
    },
    {
      "name": "telebaton-inhand-left-off",
      "directions": 4
    },
    {
      "name": "telebaton-inhand-right-off",
      "directions": 4
    },
    {
      "name": "telebaton-inhand-left-on",
      "directions": 4
    },
    {
      "name": "telebaton-inhand-right-on",
      "directions": 4
    }
  ]
}
