{
  "version": 1,
  "license": "CC-BY-SA-3.0",
  "copyright": "Taken from tgstation at commit https://github.com/tgstation/tgstation/commit/4f6190e2895e09116663ef282d3ce1d8b35c032e. Reptilian edit by kuro(388673708753027083)",
  "size": {
    "x": 32,
    "y": 32
  },
  "states": [
    {
      "name": "icon"
    },
    {
      "name": "equipped-MASK",
      "directions": 4
    },
    {
      "name": "equipped-MASK-reptilian",
      "directions": 4
    },
    {
      "name": "equipped-MASK-unathi",
      "directions": 4
    }
  ]
}
