{
    "version": 1,
    "license": "CC-BY-NC-4.0",
    "copyright": "Taken from https://github.com/tgstation/tgstation/ at commit fb2d71495bfe81446159ef528534193d09dd8d34, sawn-inhand states modified from db-inhand by Flareguy",
    "size": {
        "x": 64,
        "y": 64
    },
    "states": [
        {
            "name": "sawn-inhand-left",
            "directions": 4
        },
        {
            "name": "sawn-inhand-right",
            "directions": 4
        },
        {
            "name": "improvised-inhand-left",
            "directions": 4
        },
        {
            "name": "improvised-inhand-right",
            "directions": 4
        }
    ]
}
