{
  "version": 1,
  "license": "CC-BY-SA-3.0",
  "copyright": "Sprited by belay5 (Discord) | equipped-MASK-vox sprited by PuroSlavKing (Github)",
  "size": {
    "x": 32,
    "y": 32
  },
  "states": [
    {
      "name": "icon"
    },
    {
      "name": "equipped-MASK",
      "directions": 4
    },
    {
      "name": "equipped-MASK-vox",
      "directions": 4
    },
    {
      "name": "equipped-MASK-reptilian",
      "directions": 4
    },
    {
      "name": "inhand-left",
      "directions": 4
    },
    {
      "name": "inhand-right",
      "directions": 4
    },
    {
      "name": "equipped-MASK-unathi",
      "directions": 4
    }
  ]
}
