{
    "version": 1,
    "license": "CC-BY-SA-3.0",
    "copyright": "Made by @nmtrs",
    "size": {
        "x": 8,
        "y": 8
    },
    "states": [
        {
            "name": "Judge"
        }
    ]
}
