{
  "version": 1,
  "license": "CC-BY-SA-3.0",
  "copyright": "Made by KREKS (ss14 discord) for ss14. Reptilian edit by Nairod(Github)",
  "size": {
    "x": 32,
    "y": 32
  },
  "states": [
    {
      "name": "icon"
    },
    {
      "name": "equipped-MASK",
      "directions": 4
    },
    {
      "name": "equipped-MASK-hamster",
      "directions": 4
    },
    {
      "name": "inhand-left",
      "directions": 4
    },
    {
      "name": "inhand-right",
      "directions": 4
    },
    {
      "name": "equipped-MASK-reptilian",
      "directions": 4
    },
    {
      "name": "equipped-MASK-unathi",
      "directions": 4
    }
  ]
}
