{
  "version": 1,
  "license": "CC-BY-SA-3.0",
  "copyright": "Taken from tgstation at commit https://github.com/dannno/-tg-station/blob/a51c5a85d327f562004cef2f36c081ad0d95fd9a/icons/obj/clothing/masks.dmi. Reptilian edit by kuro(388673708753027083)",
  "size": {
    "x": 32,
    "y": 32
  },
  "states": [
    {
      "name": "icon"
    },
    {
      "name": "equipped-MASK",
      "directions": 4
    },
    {
      "name": "equipped-MASK-reptilian",
      "directions": 4
    },
    {
      "name": "equipped-MASK-unathi",
      "directions": 4
    }
  ]
}
