{
    "version": 1,
    "license": "CC-BY-SA-3.0",
    "copyright": "NoSexInUSSP and No Nits posters sprites made by Cilimanjaro",
    "size": {
        "x": 32,
        "y": 32
    },
    "states": [
        {
            "name": "poster34_contraband"
        },
        {
            "name": "poster63_contraband"
        }
    ]
}
